<?xml version="1.0" encoding="UTF-8"?>
<session version="1.0">
<refactoring comment="Rename compilation unit &apos;copiedCode.a.java&apos; to &apos;TestClass.java&apos;&#x0D;&#x0A;- Original project: &apos;Prepare.basics&apos;&#x0D;&#x0A;- Original element: &apos;copiedCode.a.java&apos;&#x0D;&#x0A;- Renamed element: &apos;copiedCode.TestClass.java&apos;" description="Rename compilation unit &apos;a.java&apos;" flags="2" id="org.eclipse.jdt.ui.rename.compilationunit" input="/src\/main\/java=/optional=/true=/=/maven.pomderived=/true=/&lt;copiedCode{a.java" name="TestClass.java" references="false" stamp="1580986613378" version="1.0"/>
</session>